{
  "type"       : "postgres",
  "host"       : "localhost",
  "port"       : 5432,
  "username"   : "postgres",
  "password"   : "postgres",
  "database"   : "hizzle",
  "entities"   : ["dist/**/*.entity{.ts,.js}"],
  "migrations": ["dist/migrations/*.js"],
  "synchronize": true
}